%YAML 1.1
%TAG !u! tag:unity3d.com,2011:
--- !u!1045 &1
EditorBuildSettings:
  m_ObjectHideFlags: 0
  serializedVersion: 2
  m_Scenes:
  - enabled: 1
    path: Assets/Scenes/MainMenu 1.unity
    guid: e02d735726c2d494486d6a8a136330d2
  - enabled: 1
    path: Assets/Scenes/JuliScene2.unity
    guid: 989385748b80ba940ba02ab398dedadb
  - enabled: 1
    path: Assets/Scenes/EndScene.unity
    guid: df65c3a79b530a74fb9a4315e981dfb8
  m_configObjects: {}
